{
    "totalResults": 205,
    "startIndex": 0,
    "totalPages": 5,
    "eadSearchResults": [{
            "id": "C5153714",
            "unitId": "2.05.187 - 344",
            "unitTitle": "Nepal. 1967 - 1973",
            "unitTitleWithHighlighting": "<em>Nepal</em>. 1967 - 1973",
            "scopeContent": "",
            "scopeContentWithHighlighting": "",
            "fondsUnitTitle": "Inventaris van de archieven van het Nederlandse Consulaat, later Consulaat-Generaal in India te Bomby (1931-1974) en de Ambassade in India te New Delhi (1951-1974)",
            "fondsUnitId": "2.05.187",
            "repository": "Nationaal Archief",
            "country": "NETHERLANDS",
            "language": "",
            "langMaterial": "",
            "unitDate": "1967 - 1973",
            "repositoryCode": "NL-HaNA",
            "hasDigitalObject": false,
            "docType": "Descriptive Unit",
            "docTypeId": "du",
            "level": "clevel",
            "indexDate": "Mon Dec 07 11:25:02 UTC 2015"
        }, {
            "id": "C3494495",
            "unitId": "2.05.166 - 543",
            "unitTitle": "India-Nepal, 1969-1974",
            "unitTitleWithHighlighting": "India-<em>Nepal</em>, 1969-1974",
            "scopeContent": "",
            "scopeContentWithHighlighting": "",
            "fondsUnitTitle": "Inventaris van het archief van de Nederlandse Ambassade China, (1899) 1955-1974",
            "fondsUnitId": "2.05.166",
            "repository": "Nationaal Archief",
            "country": "NETHERLANDS",
            "language": "",
            "langMaterial": "",
            "unitDate": "1969-1974",
            "repositoryCode": "NL-HaNA",
            "hasDigitalObject": false,
            "docType": "Descriptive Unit",
            "docTypeId": "du",
            "level": "clevel",
            "indexDate": "Sun Dec 06 19:31:58 UTC 2015"
        }, {
            "id": "F9732",
            "unitId": "2.05.213",
            "unitTitle": "Nederlandse Ambassade in Nepal (standplaats New Delhi)",
            "unitTitleWithHighlighting": "Nederlandse Ambassade in <em>Nepal</em> (standplaats New Delhi)",
            "scopeContent": "Het archief bevat stukken betreffende de Nederlandse diplomatieke vertegenwoordiging in Nepal over de jaren 1965-1974 en bevat o.a. stukken betreffende handel, luchtvaart, juridische en protocollaire aangelegenheden, staatkunde en internationale organisaties.",
            "scopeContentWithHighlighting": " vertegenwoordiging in <em>Nepal</em> over de jaren 1965-1974 en bevat o.a",
            "fondsUnitTitle": "Inventaris van het archief van de Nederlandse Ambassade in Nepal, 1965-1974",
            "fondsUnitId": "2.05.213",
            "repository": "Nationaal Archief",
            "country": "NETHERLANDS",
            "language": "",
            "langMaterial": "",
            "unitDate": "1965-1974",
            "repositoryCode": "NL-HaNA",
            "hasDigitalObject": false,
            "docType": "Finding Aid",
            "docTypeId": "fa",
            "level": "archdesc",
            "indexDate": "Mon Dec 07 09:40:26 UTC 2015"
        }, {
            "id": "F10146",
            "unitId": "2.19.066",
            "unitTitle": "Nederlandse Organisatie voor Internationale Ontwikkelingssamenwerking (NOVIB), Organisatie Projecten",
            "unitTitleWithHighlighting": "Nederlandse Organisatie voor Internationale Ontwikkelingssamenwerking (NOVIB), Organisatie Projecten",
            "scopeContent": "Het archief bestaat uit dossiers inzake goedgekeurde projecten over de periode 1964-1980 en van afgewezen projecten over de periode 1964-1990, beide series onderverdeeld in 1. Afrika 2. Azië en 3. Latijns-Amerika. Daarnaast bevinden zich in het archief de jaarverslagen 1956-1980, waarin de goedgekeurde projecten worden vermeld. Het archief bevat tevens enkele projectlijsten en andere indexen.",
            "scopeContentWithHighlighting": "Het archief bestaat uit dossiers inzake goedgekeurde projecten over de periode 1964-1980 en van afgewezen projecten over de periode 1964-1990, beide series onderverdeeld in 1. Afrika 2. Azië en 3. Latijns-Amerika. Daarnaast bevinden zich in het archief de jaarverslagen 1956-1980, waarin de goedgekeurde projecten worden vermeld. Het archief bevat tevens enkele projectlijsten en andere indexen.",
            "fondsUnitTitle": "Inventaris van het archief van de Nederlandse Organisatie voor Internationale Ontwikkelingssamenwerking (NOVIB)",
            "fondsUnitId": "2.19.066",
            "repository": "Nationaal Archief",
            "country": "NETHERLANDS",
            "language": "",
            "langMaterial": "",
            "unitDate": "1956-1980",
            "repositoryCode": "NL-HaNA",
            "hasDigitalObject": false,
            "docType": "Finding Aid",
            "docTypeId": "fa",
            "level": "archdesc",
            "indexDate": "Mon Dec 07 12:05:48 UTC 2015"
        }, {
            "id": "F9239",
            "unitId": "2.05.117",
            "unitTitle": "Ministerie van Buitenlandse Zaken: Code-archief 1945-1954",
            "unitTitleWithHighlighting": "Ministerie van Buitenlandse Zaken: Code-archief 1945-1954",
            "scopeContent": "Het archief van het Ministerie van Buitenlandse Zaken betreft het eigen departement, de Nederlandse vertegenwoordiging in het buitenland en de buitenlandse vertegenwoordigingen in Nederland, daarnaast bevat het archief de archieven van commissarissen-generaal, van commissies en enkele werkarchieven. Het archief bevat voornamelijk een neerslag van de periode na de Tweede Wereldoorlog, maar bevat ook materiaal uit de oorlogsperiode. Het archief is ingedeeld op een aantal hoofdthema's zoals: protocolaire en juridische aangelegenheden, openbare gezondheidszorg, openbare veiligheid, volkshuisvesting, verkeer en vervoer, economie, migratie, arbeid, sociale aangelegenheden, culturele en wetenschappelijke aangelegenheden, landsverdediging en internationale organisaties. Enkele belangrijke gebeurtenissen waarover materiaal te vinden is zijn: opsporing en berechting van Duitse oorlogsmisdadigers, restitutie van o.a. geroofde kunst, koloniale geschiedenis en dekolonisatie, oprichting van belangrijke internationale organisaties (bijvoorbeeld de NAVO en de EEG) en (foto's van) de watersnoodramp van 1953.  Inhoud Het archiefblok omvat het tienjarenblok van de archieven van het Ministerie van Buitenlandse Zaken over de periode 1945-1954. De begincesuur voor dit archief is het jaar 1945. De eindcesuur is gelegen in het jaar 1954.",
            "scopeContentWithHighlighting": "Het archief van het Ministerie van Buitenlandse Zaken betreft het eigen departement, de Nederlandse vertegenwoordiging in het buitenland en de buitenlandse vertegenwoordigingen in Nederland, daarnaast bevat het archief de archieven van commissarissen-generaal, van commissies en enkele werkarchieven. Het archief bevat voornamelijk een neerslag van de periode na de Tweede Wereldoorlog, maar bevat ook materiaal uit de oorlogsperiode. Het archief is ingedeeld op een aantal hoofdthema's zoals: protocolaire en juridische aangelegenheden, openbare gezondheidszorg, openbare veiligheid, volkshuisvesting, verkeer en vervoer, economie, migratie, arbeid, sociale aangelegenheden, culturele en wetenschappelijke aangelegenheden, landsverdediging en internationale organisaties. Enkele belangrijke gebeurtenissen waarover materiaal te vinden is zijn: opsporing en berechting van Duitse oorlogsmisdadigers, restitutie van o.a. geroofde kunst, koloniale geschiedenis en dekolonisatie, oprichting van belangrijke internationale organisaties (bijvoorbeeld de NAVO en de EEG) en (foto's van) de watersnoodramp van 1953.  Inhoud Het archiefblok omvat het tienjarenblok van de archieven van het Ministerie van Buitenlandse Zaken over de periode 1945-1954. De begincesuur voor dit archief is het jaar 1945. De eindcesuur is gelegen in het jaar 1954.",
            "fondsUnitTitle": "Inventaris van het code-archief van het Ministerie van Buitenlandse Zaken, 1945-1954",
            "fondsUnitId": "2.05.117",
            "repository": "Nationaal Archief",
            "country": "NETHERLANDS",
            "language": "",
            "langMaterial": "",
            "unitDate": "1945-1954",
            "repositoryCode": "NL-HaNA",
            "hasDigitalObject": false,
            "docType": "Finding Aid",
            "docTypeId": "fa",
            "level": "archdesc",
            "indexDate": "Mon Dec 07 03:18:47 UTC 2015"
        }]
}